Running State Space Explorer for mutex-3.lila
Run complete.
84 states seen.
0.0 seconds taken.
Infinity states per second.
2184 bytes statespace.
26 bytes state vector.
Biggest depth 14
117 hits on items that were already in the statespace.
no errors